<?xml version="1.0" encoding="UTF-8"?>
<!DOCTYPE svg PUBLIC "-//W3C//DTD SVG 1.1//EN" "http://www.w3.org/Graphics/SVG/1.1/DTD/svg11.dtd">
<svg xmlns="http://www.w3.org/2000/svg" version="1.1" width="400px" height="400px" style="shape-rendering:geometricPrecision; text-rendering:geometricPrecision; image-rendering:optimizeQuality; fill-rule:evenodd; clip-rule:evenodd" xmlns:xlink="http://www.w3.org/1999/xlink">
<g><path style="opacity:0.976" fill="#fefffe" d="M 184.5,65.5 C 237.776,62.0648 280.943,81.0648 314,122.5C 317.333,127.833 320.667,133.167 324,138.5C 324.965,142.782 324.298,146.782 322,150.5C 309.745,158.046 297.245,165.213 284.5,172C 280.018,173.011 276.184,171.844 273,168.5C 252.409,134.291 222.242,120.124 182.5,126C 170.19,128.489 159.19,133.656 149.5,141.5C 158.795,148.488 168.128,155.488 177.5,162.5C 179.243,166.221 178.576,169.388 175.5,172C 141.575,183.864 107.575,195.531 73.5,207C 69.328,208.291 66.1613,207.124 64,203.5C 63.0829,165.447 63.5829,127.447 65.5,89.5C 67.8671,87.6048 70.5337,87.1048 73.5,88C 82.3333,94.1667 91.1667,100.333 100,106.5C 123.543,83.3118 151.71,69.6452 184.5,65.5 Z"/></g>
<g><path style="opacity:0.916" fill="#fefffe" d="M 138.5,215.5 C 156.651,214.325 167.485,222.659 171,240.5C 173.699,256.431 172.699,272.098 168,287.5C 161.373,302.658 149.706,310.324 133,310.5C 127.312,310.136 121.812,308.969 116.5,307C 114.607,304.083 114.107,300.916 115,297.5C 115.725,296.941 116.558,296.608 117.5,296.5C 143.378,304.661 157.211,295.327 159,268.5C 147.884,274.096 136.384,274.929 124.5,271C 115.622,265.419 111.289,257.252 111.5,246.5C 112.431,228.915 121.431,218.581 138.5,215.5 Z M 136.5,226.5 C 144.231,225.017 150.397,227.35 155,233.5C 158.459,241.547 159.626,249.88 158.5,258.5C 150.607,263.114 142.273,264.281 133.5,262C 131.04,260.542 128.873,258.709 127,256.5C 125.473,250.585 125.139,244.585 126,238.5C 127.91,232.951 131.41,228.951 136.5,226.5 Z"/></g>
<g><path style="opacity:0.922" fill="#fefffe" d="M 211.5,215.5 C 233.846,214.341 245.68,225.007 247,247.5C 247.667,257.5 247.667,267.5 247,277.5C 243.352,304.228 228.519,314.394 202.5,308C 195.268,305.101 190.435,299.934 188,292.5C 183.05,272.721 183.384,253.055 189,233.5C 193.48,223.501 200.98,217.501 211.5,215.5 Z M 213.5,226.5 C 225.063,226.223 231.563,231.89 233,243.5C 235,256.5 235,269.5 233,282.5C 229.645,297.427 220.812,302.26 206.5,297C 202.291,293.083 199.791,288.25 199,282.5C 196.535,267.327 197.202,252.327 201,237.5C 203.537,231.785 207.704,228.118 213.5,226.5 Z"/></g>
<g><path style="opacity:0.935" fill="#fcfcfc" d="M 284.5,216.5 C 304.65,214.483 313.483,223.483 311,243.5C 304.746,256.031 294.913,259.864 281.5,255C 272.249,248.926 269.082,240.426 272,229.5C 274.353,223.315 278.52,218.982 284.5,216.5 Z M 286.5,225.5 C 298.319,224.485 303.486,229.818 302,241.5C 298.364,247.177 293.197,249.01 286.5,247C 280.891,243.723 279.058,238.89 281,232.5C 281.967,229.379 283.8,227.046 286.5,225.5 Z"/></g>
<g><path style="opacity:0.952" fill="#fdfdfd" d="M 100.5,274.5 C 101.815,279.68 101.815,285.014 100.5,290.5C 99.2647,285.147 99.2647,279.813 100.5,274.5 Z"/></g>
</svg>
