<?xml version="1.0" encoding="UTF-8"?>
<!DOCTYPE svg PUBLIC "-//W3C//DTD SVG 1.1//EN" "http://www.w3.org/Graphics/SVG/1.1/DTD/svg11.dtd">
<svg xmlns="http://www.w3.org/2000/svg" version="1.1" width="400px" height="400px" style="shape-rendering:geometricPrecision; text-rendering:geometricPrecision; image-rendering:optimizeQuality; fill-rule:evenodd; clip-rule:evenodd" xmlns:xlink="http://www.w3.org/1999/xlink">
<g><path style="opacity:0.972" fill="#fefffe" d="M 129.5,26.5 C 155.835,26.3334 182.169,26.5 208.5,27C 211.102,27.935 212.602,29.7683 213,32.5C 213.499,37.1548 213.666,41.8215 213.5,46.5C 234.503,46.3334 255.503,46.5 276.5,47C 284.333,49.5 289.5,54.6667 292,62.5C 292.667,83.1667 292.667,103.833 292,124.5C 291.5,125 291,125.5 290.5,126C 284.605,127.124 278.605,127.624 272.5,127.5C 267.167,127.333 261.833,127.167 256.5,127C 255.234,126.691 254.067,126.191 253,125.5C 252.5,112.838 252.333,100.171 252.5,87.5C 246.167,87.5 239.833,87.5 233.5,87.5C 233.839,92.9302 233.339,98.2636 232,103.5C 230.786,105.049 229.286,106.215 227.5,107C 188.833,107.667 150.167,107.667 111.5,107C 108.768,106.602 106.935,105.102 106,102.5C 105.501,97.5111 105.334,92.5111 105.5,87.5C 99.1667,87.5 92.8333,87.5 86.5,87.5C 86.5,168.833 86.5,250.167 86.5,331.5C 141.833,331.5 197.167,331.5 252.5,331.5C 252.178,318.587 252.511,305.754 253.5,293C 265.095,291.398 276.762,291.065 288.5,292C 289.931,292.465 291.097,293.299 292,294.5C 292.667,315.167 292.667,335.833 292,356.5C 289.5,364.333 284.333,369.5 276.5,372C 205.167,372.667 133.833,372.667 62.5,372C 54.8372,370.335 49.6705,365.835 47,358.5C 45.8424,308.878 45.3424,259.211 45.5,209.5C 45.3424,159.789 45.8424,110.122 47,60.5C 49.6954,53.1365 54.862,48.6365 62.5,47C 83.4974,46.5 104.497,46.3334 125.5,46.5C 125.334,41.1563 125.501,35.8229 126,30.5C 126.69,28.6498 127.856,27.3164 129.5,26.5 Z"/></g>
<g><path style="opacity:0.972" fill="#fefffe" d="M 312.5,136.5 C 314.655,136.372 316.655,136.872 318.5,138C 329.667,149.167 340.833,160.333 352,171.5C 353.301,173.365 353.635,175.365 353,177.5C 322.5,208 292,238.5 261.5,269C 245.455,273.887 229.289,278.387 213,282.5C 209.833,282 208,280.167 207.5,277C 211.613,260.711 216.113,244.545 221,228.5C 251.702,197.965 282.202,167.299 312.5,136.5 Z M 231.5,240.5 C 237.631,246.13 243.631,251.964 249.5,258C 241.645,260.8 233.645,263.3 225.5,265.5C 226.664,257.167 228.664,248.834 231.5,240.5 Z"/></g>
</svg>
