<?xml version="1.0" encoding="UTF-8"?>
<!DOCTYPE svg PUBLIC "-//W3C//DTD SVG 1.1//EN" "http://www.w3.org/Graphics/SVG/1.1/DTD/svg11.dtd">
<svg xmlns="http://www.w3.org/2000/svg" version="1.1" width="400px" height="400px" style="shape-rendering:geometricPrecision; text-rendering:geometricPrecision; image-rendering:optimizeQuality; fill-rule:evenodd; clip-rule:evenodd" xmlns:xlink="http://www.w3.org/1999/xlink">
<g><path style="opacity:0.967" fill="#fefffe" d="M 149.5,14.5 C 172.54,12.5111 194.207,17.0111 214.5,28C 221.201,32.678 227.867,37.3447 234.5,42C 257.333,64.8333 280.167,87.6667 303,110.5C 305.877,114.976 306.21,119.643 304,124.5C 278.805,150.028 253.305,175.195 227.5,200C 193.384,225.012 156.718,229.345 117.5,213C 107.684,208.177 98.6839,202.177 90.5,195C 67.6667,172.167 44.8333,149.333 22,126.5C 19.123,122.024 18.7896,117.357 21,112.5C 45.8333,87.6667 70.6667,62.8333 95.5,38C 111.508,25.4937 129.508,17.6604 149.5,14.5 Z M 156.5,48.5 C 196.593,49.109 221.426,68.7756 231,107.5C 234.321,142.706 220.155,167.873 188.5,183C 154.931,194.254 127.098,186.087 105,158.5C 87.5199,129.816 88.5199,101.816 108,74.5C 120.928,59.6216 137.095,50.955 156.5,48.5 Z"/></g>
<g><path style="opacity:0.966" fill="#fefffe" d="M 155.5,84.5 C 180.389,82.9016 194.056,94.4016 196.5,119C 194.33,142.604 181.33,153.938 157.5,153C 133.325,146.493 124.158,130.993 130,106.5C 135.032,94.9565 143.532,87.6232 155.5,84.5 Z"/></g>
<g><path style="opacity:0.979" fill="#fefffe" d="M 200.5,222.5 C 259.168,222.333 317.834,222.5 376.5,223C 388.714,228.439 391.88,237.273 386,249.5C 360,275.5 334,301.5 308,327.5C 307.667,348.167 307.333,368.833 307,389.5C 304.252,393.619 300.419,395.119 295.5,394C 287.833,389.667 280.167,385.333 272.5,381C 271.789,379.745 270.956,378.579 270,377.5C 269.667,360.833 269.333,344.167 269,327.5C 243,301.5 217,275.5 191,249.5C 185.185,237.102 188.352,228.102 200.5,222.5 Z"/></g>
</svg>
